<svg viewBox="-16 -16 32 32" xmlns="http://www.w3.org/2000/svg">
	<title>syeve - simple yet efficient video encoding</title>
	<desc>The logo represents an onion dome because "syeve" sounds like an east slavic word. The background is a test pattern looking like the glitches produced by syeve with a packet is lost. CopyLeft 2021 Pascal Engélibert, CC BY-SA 4.0</desc>
	<mask id="round">
		<circle cx="0" cy="0" r="16" fill="#fff"/>
	</mask>
	<g mask="url(#round)">
		<g transform="translate(0,-16)">
			<rect x="-16" y="0" width="4" height="4" fill="#000"/>
			<rect x="-12" y="0" width="4" height="4" fill="#fff"/>
			<rect x="-8" y="0" width="4" height="4" fill="#000"/>
			<rect x="-4" y="0" width="4" height="4" fill="#fff"/>
			<rect x="0" y="0" width="4" height="4" fill="#fff"/>
			<rect x="4" y="0" width="4" height="4" fill="#000"/>
			<rect x="8" y="0" width="4" height="4" fill="#fff"/>
			<rect x="12" y="0" width="4" height="4" fill="#000"/>
		</g>
		<g transform="translate(0,-12)">
			<rect x="-16" y="0" width="4" height="4" fill="#f0f"/>
			<rect x="-12" y="0" width="4" height="4" fill="#0ff"/>
			<rect x="-8" y="0" width="4" height="4" fill="#ff0"/>
			<rect x="-4" y="0" width="4" height="4" fill="#0ff"/>
			<rect x="0" y="0" width="4" height="4" fill="#f0f"/>
			<rect x="4" y="0" width="4" height="4" fill="#0ff"/>
			<rect x="8" y="0" width="4" height="4" fill="#ff0"/>
			<rect x="12" y="0" width="4" height="4" fill="#f0f"/>
		</g>
		<g transform="translate(0,-8)">
			<rect x="-16" y="0" width="4" height="4" fill="#111"/>
			<rect x="-12" y="0" width="4" height="4" fill="#333"/>
			<rect x="-8" y="0" width="4" height="4" fill="#555"/>
			<rect x="-4" y="0" width="4" height="4" fill="#666"/>
			<rect x="0" y="0" width="4" height="4" fill="#888"/>
			<rect x="4" y="0" width="4" height="4" fill="#aaa"/>
			<rect x="8" y="0" width="4" height="4" fill="#ccc"/>
			<rect x="12" y="0" width="4" height="4" fill="#eee"/>
		</g>
		<g transform="translate(0,-4)">
			<rect x="-16" y="0" width="8" height="4" fill="#fff"/>
			<rect x="-8" y="0" width="8" height="4" fill="#bbb"/>
			<rect x="0" y="0" width="8" height="4" fill="#444"/>
			<rect x="8" y="0" width="8" height="4" fill="#000"/>
		</g>
		<g transform="translate(0,0)">
			<rect x="-16" y="0" width="4" height="4" fill="#0ff"/>
			<rect x="-12" y="0" width="4" height="4" fill="#f0f"/>
			<rect x="-8" y="0" width="4" height="4" fill="#ff0"/>
			<rect x="-4" y="0" width="4" height="4" fill="#f0f"/>
			<rect x="0" y="0" width="4" height="4" fill="#0ff"/>
			<rect x="4" y="0" width="4" height="4" fill="#f0f"/>
			<rect x="8" y="0" width="4" height="4" fill="#ff0"/>
			<rect x="12" y="0" width="4" height="4" fill="#f0f"/>
		</g>
		<g transform="translate(0,4)">
			<rect x="-16" y="0" width="4" height="4" fill="#00f"/>
			<rect x="-12" y="0" width="4" height="4" fill="#0f0"/>
			<rect x="-8" y="0" width="4" height="4" fill="#0f0"/>
			<rect x="-4" y="0" width="4" height="4" fill="#00f"/>
			<rect x="0" y="0" width="4" height="4" fill="#00f"/>
			<rect x="4" y="0" width="4" height="4" fill="#f00"/>
			<rect x="8" y="0" width="4" height="4" fill="#f00"/>
			<rect x="12" y="0" width="4" height="4" fill="#00f"/>
		</g>
		<rect x="-16" y="8" width="32" height="8" fill="#fff"/>
		<path d="M8,4 L8,0 Q15,-5 5,-13 Q0,-17 0,-25 Q0,-17 -5,-13 Q-15,-5 -8,0 L-8,4 Z" fill="#000" transform="translate(0,12)"/>
		<g transform="translate(0,4)">
			<circle cx="-4" cy="0" r="1" fill="#fff"/>
			<circle cx="4" cy="0" r="1" fill="#fff"/>
		</g>
	</g>
</svg>
